<?xml version="1.0" encoding="UTF-8" standalone="no"?>
<!DOCTYPE svg PUBLIC "-//W3C//DTD SVG 1.1//EN" "http://www.w3.org/Graphics/SVG/1.1/DTD/svg11.dtd">
<svg width="100%" height="100%" viewBox="0 0 1450 910" version="1.1" xmlns="http://www.w3.org/2000/svg" xmlns:xlink="http://www.w3.org/1999/xlink" xml:space="preserve" xmlns:serif="http://www.serif.com/" style="fill-rule:evenodd;clip-rule:evenodd;stroke-linejoin:round;stroke-miterlimit:2;">
    <g id="CodeFlow" transform="matrix(1.25158,0,0,1.27636,-492.741,-689.301)">
        <g id="PR" transform="matrix(1.58484,0,0,1.58484,-286.472,-334.286)">
            <g id="PR1" serif:id="PR" transform="matrix(1.02223,0.0277947,-0.0183175,0.67368,-286.752,481.58)">
                <path d="M718.933,718.555L716.207,468.239C716.207,468.239 712.428,456.561 727.091,456.567C750.947,456.577 1065.05,448.617 1134.45,445.981C1148.69,445.44 1146.89,458.222 1146.89,458.222L1152.01,704.832C1152.01,704.832 1155.36,718.846 1138.9,720.212C1070.05,725.92 795.879,729.615 731.533,730.698C718.008,730.925 718.933,718.555 718.933,718.555Z" style="fill:rgb(248,248,248);"/>
            </g>
            <g id="Check" transform="matrix(0.860543,0,0,0.860543,63.113,115.029)">
                <circle cx="467.511" cy="839.785" r="14.948" style="fill:rgb(0,197,51);"/>
                <g transform="matrix(2.59703,-2.51315,0.414572,0.428409,-1076.47,1640.87)">
                    <rect x="459.696" y="837.633" width="4.067" height="2.151" style="fill:white;"/>
                </g>
                <g transform="matrix(1.57642,1.50443,-0.358765,0.375933,35.5435,-168.044)">
                    <rect x="459.696" y="837.633" width="4.067" height="2.151" style="fill:white;"/>
                </g>
            </g>
            <g id="Check1" serif:id="Check" transform="matrix(0.860543,0,0,0.860543,61.1266,233.629)">
                <circle cx="467.511" cy="839.785" r="14.948" style="fill:rgb(0,197,51);"/>
                <g transform="matrix(2.59703,-2.51315,0.414572,0.428409,-1076.47,1640.87)">
                    <rect x="459.696" y="837.633" width="4.067" height="2.151" style="fill:white;"/>
                </g>
                <g transform="matrix(1.57642,1.50443,-0.358765,0.375933,35.5435,-168.044)">
                    <rect x="459.696" y="837.633" width="4.067" height="2.151" style="fill:white;"/>
                </g>
            </g>
            <rect x="493.928" y="830.817" width="154.648" height="11.678" style="fill:rgb(211,211,211);"/>
            <g id="Command3">
                <g transform="matrix(0.632535,0,0,0.467567,230.56,492.227)">
                    <rect x="493.928" y="830.817" width="154.648" height="11.678" style="fill:rgb(211,211,211);"/>
                </g>
                <g transform="matrix(0.947079,0,0,0.702271,38.343,253.867)">
                    <rect x="420.024" y="881.088" width="466.004" height="1.426" style="fill:rgb(211,211,211);"/>
                </g>
                <g transform="matrix(0.791157,0,0,0.791157,96.5308,189.048)">
                    <rect x="457.718" y="869.676" width="16.28" height="16.28" style="fill:rgb(0,203,96);"/>
                </g>
                <g transform="matrix(1,0,0,1,-4.07823,10.227)">
                    <rect x="483.677" y="869.676" width="56.818" height="6.44" style="fill:rgb(104,104,104);"/>
                </g>
            </g>
            <g id="Command2" transform="matrix(1,0,0,1,-0.41495,20.9358)">
                <g transform="matrix(0.904522,0,0,0.396045,147.656,550.862)">
                    <rect x="493.928" y="830.817" width="154.648" height="11.678" style="fill:rgb(211,211,211);"/>
                </g>
                <g transform="matrix(0.947079,0,0,0.702271,38.343,253.867)">
                    <rect x="420.024" y="881.088" width="466.004" height="1.426" style="fill:rgb(211,211,211);"/>
                </g>
                <g transform="matrix(0.947079,0,0,0.702271,39.1676,294.451)">
                    <rect x="420.024" y="881.088" width="466.004" height="1.426" style="fill:rgb(211,211,211);"/>
                </g>
                <g transform="matrix(0.791157,0,0,0.791157,96.5308,189.048)">
                    <rect x="457.718" y="869.676" width="16.28" height="16.28" style="fill:rgb(0,203,96);"/>
                </g>
                <g transform="matrix(1.94761,0,0,0.803507,-462.414,181.112)">
                    <rect x="483.677" y="869.676" width="56.818" height="6.44" style="fill:rgb(104,104,104);"/>
                </g>
            </g>
            <g id="Command1" transform="matrix(1,0,0,1,-0.167812,41.1489)">
                <g transform="matrix(0.632535,0,0,0.467567,230.56,492.227)">
                    <rect x="493.928" y="830.817" width="154.648" height="11.678" style="fill:rgb(211,211,211);"/>
                </g>
                <g transform="matrix(0.947079,0,0,0.702271,38.343,253.867)">
                    <rect x="420.024" y="881.088" width="466.004" height="1.426" style="fill:rgb(211,211,211);"/>
                </g>
                <g transform="matrix(0.791157,0,0,0.791157,96.5308,189.048)">
                    <rect x="457.718" y="869.676" width="16.28" height="16.28" style="fill:rgb(0,203,96);"/>
                </g>
                <g transform="matrix(1,0,0,1,-4.07823,10.227)">
                    <rect x="483.677" y="869.676" width="56.818" height="6.44" style="fill:rgb(104,104,104);"/>
                </g>
            </g>
            <g id="Bttn" transform="matrix(0.289826,0.00788042,-0.00239224,0.0879818,535.135,917.851)">
                <path d="M718.933,718.555L716.207,468.239C716.207,468.239 712.428,456.561 727.091,456.567C750.947,456.577 1065.05,448.617 1134.45,445.981C1148.69,445.44 1146.89,458.222 1146.89,458.222L1152.01,704.832C1152.01,704.832 1155.36,718.846 1138.9,720.212C1070.05,725.92 795.879,729.615 731.533,730.698C718.008,730.925 718.933,718.555 718.933,718.555Z" style="fill:rgb(0,197,51);"/>
            </g>
        </g>
        <g id="Editor" transform="matrix(1.76809,0,0,1.76809,-690.56,-248.664)">
            <g>
                <g transform="matrix(1.0777,0.0157285,-0.0145838,0.999263,-47.0164,-13.7062)">
                    <path d="M824.377,454.467L828.094,729.14C785.278,729.868 749.878,730.389 731.533,730.698C718.008,730.925 718.933,718.555 718.933,718.555L716.207,468.239C716.207,468.239 712.428,456.561 727.091,456.567C734.866,456.57 773.467,455.727 824.377,454.467Z" style="fill:rgb(51,62,80);"/>
                </g>
                <path d="M834.784,453.392C948.314,452.538 1118.63,450.83 1169.07,449.79C1184.43,449.473 1182.3,462.217 1182.3,462.217L1184.22,708.726C1184.22,708.726 1187.63,722.783 1169.86,723.888C1116.76,727.192 950.583,727.817 834.784,727.921L834.784,453.392Z" style="fill:rgb(69,78,92);"/>
            </g>
            <g>
                <rect x="839.751" y="463.053" width="62.262" height="7.92" style="fill:rgb(108,121,142);fill-opacity:0.36;"/>
                <g transform="matrix(1,0,0,1,66.9578,0)">
                    <rect x="839.751" y="463.053" width="62.262" height="7.92" style="fill:rgb(108,121,142);fill-opacity:0.36;"/>
                </g>
            </g>
            <g>
                <g transform="matrix(0.570529,0,0,0.5867,311.657,201.091)">
                    <rect x="730.288" y="468.581" width="90.899" height="6.239" style="fill:rgb(182,205,146);"/>
                </g>
                <g transform="matrix(0.570529,0,0,0.5867,311.657,255.411)">
                    <rect x="730.288" y="468.581" width="90.899" height="6.239" style="fill:rgb(182,205,146);"/>
                </g>
                <g transform="matrix(0.673119,0,0,0.706576,236.737,152.858)">
                    <rect x="730.288" y="468.581" width="90.899" height="6.239" style="fill:rgb(182,205,146);"/>
                </g>
                <g transform="matrix(0.802192,0,0,0.677889,142.476,246.162)">
                    <rect x="730.288" y="468.581" width="90.899" height="6.239" style="fill:rgb(182,205,146);"/>
                </g>
                <g transform="matrix(0.76922,0,0,5.45645,179.701,-2064.53)">
                    <rect x="730.288" y="468.581" width="90.899" height="6.239" style="fill:rgb(182,205,146);fill-opacity:0.36;"/>
                </g>
                <g transform="matrix(0.528504,0,0,3.45115,355.492,-1078.83)">
                    <rect x="730.288" y="468.581" width="90.899" height="6.239" style="fill:rgb(182,205,146);fill-opacity:0.36;"/>
                </g>
            </g>
            <g>
                <rect x="859.812" y="488.354" width="68.268" height="5.593" style="fill:rgb(255,67,222);fill-opacity:0.36;"/>
                <g transform="matrix(1.80601,0,0,0.971757,-693.019,110.087)">
                    <rect x="859.812" y="488.354" width="68.268" height="5.593" style="fill:rgb(255,67,222);fill-opacity:0.36;"/>
                </g>
                <rect x="875.913" y="500.449" width="93.058" height="55.085" style="fill:rgb(255,199,245);fill-opacity:0.36;"/>
                <g transform="matrix(1.46954,0,0,1.30116,-412.26,-55.6759)">
                    <rect x="875.913" y="500.449" width="93.058" height="55.085" style="fill:rgb(255,199,245);fill-opacity:0.36;"/>
                </g>
            </g>
        </g>
        <g id="SPA" transform="matrix(1.70895,0,0,1.70895,-1426.41,-777.583)">
            <g transform="matrix(0.905733,0.0246271,-0.0264593,0.973118,710.745,437.299)">
                <path d="M749.46,456.204C827.461,454.624 1073.94,448.279 1134.45,445.981C1148.69,445.44 1146.89,458.222 1146.89,458.222L1152.01,704.832C1152.01,704.832 1155.36,718.846 1138.9,720.212C1075.98,725.428 841.619,728.963 752.597,730.362L749.46,456.204Z" style="fill:white;"/>
            </g>
            <g>
                <g transform="matrix(0.999863,0.0165314,-0.0165314,0.999863,17.165,-22.0973)">
                    <path d="M1375.37,1166.08L1356.28,1166.2C1344.03,1166.3 1344.99,1154.26 1344.99,1154.26L1345.12,910.573C1345.12,910.573 1341.82,899.169 1355.1,899.317C1357.87,899.348 1364.97,899.297 1375.37,899.18L1375.37,1166.08Z" style="fill:rgb(71,166,255);"/>
                </g>
                <g transform="matrix(1,0,0,1,-2.32949,-9.92726)">
                    <circle cx="1364.25" cy="928.249" r="9.851" style="fill:white;"/>
                </g>
            </g>
            <rect x="1387.03" y="921.762" width="54.815" height="230.614" style="fill:rgb(235,235,235);"/>
            <g transform="matrix(1,0,0,0.858225,0,163.338)">
                <rect x="1463.14" y="1010.47" width="255.057" height="141.62" style="fill:rgb(235,235,235);"/>
            </g>
            <rect x="1490.06" y="953.21" width="102.993" height="36.275" style="fill:rgb(235,235,235);"/>
            <path d="M1668.55,925.17C1693.51,925.689 1713.62,946.116 1713.62,971.203C1713.62,996.615 1692.98,1017.25 1667.57,1017.25C1643.66,1017.25 1623.98,998.974 1621.74,975.64L1627.55,975.64C1629.37,995.875 1646.4,1011.76 1667.11,1011.76C1689.03,1011.76 1706.82,993.961 1706.82,972.04C1706.82,950.602 1689.8,933.109 1668.55,932.349L1668.55,925.17Z" style="fill:rgb(71,166,255);"/>
            <rect x="1650.73" y="970.292" width="37.051" height="5.874" style="fill:rgb(73,73,73);"/>
        </g>
    </g>
</svg>
